Tancredo: 
bknumber: 19518
ipd da loja: 10.11.30.1
pdv 6:  <string>http://10.11.30.175:5000/</string>
pdv 5:  <string>http://10.11.30.176:5000/</string>

Anhaia: 
bknumber: 23735
ip da loja: 10.11.162.1
pdv 6:  <string>http://10.11.162.175:5000/</string>
pdv 5:  <string>http://10.11.162.176:5000/</string>

JK: 
bknumber: 24764
ip da loja: 10.11.199.1
pdv4: <string>http://10.11.199.175:5000/</string>
pdv5: <string>http://10.11.199.176:5000/</string>

Helio: 
bknumber: 23735
ip da loja: 10.97.59.1
pdv7:<string>http://10.97.59.199:5000/</string>
pdv8:<string>http://10.97.59.199:5000/</string>

Radial: 
bknumber: 18334
ip da loja: 10.198.59.1
pdv6:<string>http://10.198.59.175:5000/</string>
pdv7:<string>http://10.198.59.176:5000/</string>




auth: cdf55038-b88d-40a1-b754-94a4fe468e61

mwpos_server/genesis/data/POS07/bundles/electronic_payment/loader.cfg (no lugar de POS07 vai o número do respectivo pos)





10.200.22.1;administrador;123mudar
10.11.30.1;administrador;jhASTYI%#$;POS05;http://10.11.30.176:5000/;POS06;http://10.11.30.175:5000/

10.11.162.1;administrador;jhASTYI%#$;pdv5;<string>http://10.11.162.176:5000/</string>;pdv6;<string>http://10.11.162.175:5000/</string>
10.11.199.1;administrador;jhASTYI%#$;pdv4; <string>http://10.11.199.175:5000/</string>;pdv5;<string>http://10.11.199.176:5000/</string>
10.97.59.1;administrador;jhASTYI%#$;pdv7;<string>http://10.97.59.199:5000/</string>;pdv8;<string>http://10.97.59.199:5000/</string>
10.198.59.1;administrador;jhASTYI%#$;pdv6;<string>http://10.198.59.175:5000/</string>;pdv7;<string>http://10.198.59.176:5000/</string>


